DDS 6306 : Case Study 1
…
October 11, 2019

Introduction

In this report, we explore beers and breweries datasets for the 51 states in the US. The steps and procedures taken in this analysis are stipulated below. We successfully merged the two datasets Beers dataset which contains a list of 2410 US craft beers to the Breweries dataset containing 558 US breweries.

Analysis Questions

In this section, we address the research questions put together on this two dataset. The questions are numbered 1 to 7

1. How many breweries are present in each state?

We answer this question by using count function in base to count the number of breweries grouped by state. This creates a dataframe named df_count with two columns State which is the State name and Breweries which is the number of breweries in a given state. Each row represents one State. Colorado has the highest number of breweries {47} where as Washington DC, South Dakota (SD), North Dakota (ND), and West Virginia (WV) tie for the least amount of breweries each with just 1.

## # A tibble: 51 x 2
##    State Breweries
##    <fct>     <int>
##  1 " AK"         7
##  2 " AL"         3
##  3 " AR"         2
##  4 " AZ"        11
##  5 " CA"        39
##  6 " CO"        47
##  7 " CT"         8
##  8 " DC"         1
##  9 " DE"         2
## 10 " FL"        15
## #  with 41 more rows
…
